{"_id":{"$oid":"6012a1dfc167c93af700304e"},"tenants":[],"username":"Test Personel","email":"ismail.cetin@experto.com.tr","active":true,"oid":"38a80f08-cd9f-4467-8a52-63bd859a4119","key":"ismail.cetin@experto.com.tr","__v":{"$numberInt":"0"},"oldId":"5f2bd52bd22aa87eab2b17f1","vroles":[]}
{"_id":{"$oid":"601348aec167c93af7004a0b"},"vroles":["ADMIN","MUHASEBE_YÖNETIM","TOPLANTIRAPORLAMA"],"tenants":[],"username":"Mehmet Suyuti Dindar","email":"mehmet.dindar@experto.com.tr","active":true,"oid":"1c88de8b-4d0d-4f59-817c-61f2b76438f0","isAdmin":true,"key":"mehmet.dindar@experto.com.tr","__v":{"$numberInt":"0"},"oldId":"5f2bd51ed22aa87eab2b17ec"}
{"_id":{"$oid":"6013dc78c167c93af7006fcf"},"vroles":["MUHASEBE_YÖNETIM","YÖNETIM","SATIŞ_PERSONEL","TOPLANTIRAPORLAMA","URUN_YONETIM","SATIŞ_YÖNETIM"],"tenants":[],"username":"Alpaslan Birol","email":"alpaslan.birol@experto.com.tr","active":true,"oid":"95fb6b30-e944-42ad-acce-ade94426eadd","isAdmin":false,"key":"ALPASLAN_BIROL","__v":{"$numberInt":"0"},"oldId":"5f450cb36c5830947074cd8e"}
{"_id":{"$oid":"6013dcc4c167c93af7006fe8"},"vroles":[],"tenants":[],"username":"Alper Engin","email":"alper.engin@experto.com.tr","active":true,"oid":"0528874a-2ce2-400e-bb84-b0a245c257df","isAdmin":false,"key":"ALPER_ENGIN","__v":{"$numberInt":"0"}}
{"_id":{"$oid":"6013dd05c167c93af7006ffd"},"vroles":["SATIŞ_PERSONEL"],"tenants":[],"username":"Anıl Tez","email":"anil.tez@experto.com.tr","active":true,"oid":"9d487375-3803-437d-959d-8de8af696183","isAdmin":false,"key":"ANIL_TEZ","__v":{"$numberInt":"0"},"oldId":"5f64990f17dac266ab8e9248"}
{"_id":{"$oid":"6013ddb4c167c93af7007034"},"vroles":["SATIŞ_PERSONEL"],"tenants":[],"username":"Ayşe Neslihan Bahçe","email":"asistan@experto.com.tr ","active":true,"oid":"4f4126ea-fdd6-4069-8357-ba9c9e8fd666","isAdmin":false,"key":"AYSE_NESLIHAN_BAHCE","__v":{"$numberInt":"0"},"oldId":"5f5f7bce2ec9cd0d2ba52a60"}
{"_id":{"$oid":"6013de0bc167c93af7007054"},"vroles":["SATIŞ_YÖNETIM","SATIŞ_PERSONEL"],"tenants":[],"username":"Büşra Özge Hacıbayramoğlu","email":"busra.hacibayramoglu@experto.com.tr","active":true,"oid":"17fec524-ee56-4676-8b42-cbdbefaf8914","isAdmin":false,"key":"BUSRA_OZGE_HACIBYRMGL","__v":{"$numberInt":"0"},"oldId":"5f649bd017dac266ab8e9259"}
{"_id":{"$oid":"6013de90c167c93af7007080"},"vroles":["SATIŞ_PERSONEL"],"tenants":[],"username":"Derya Şen","email":"derya.sen@experto.com.tr","active":true,"oid":"4bbdc5c6-4bf1-48da-9e4d-e9bcd4a9fd01","isAdmin":false,"key":"DERYA_SEN","__v":{"$numberInt":"0"},"oldId":"5f649f1417dac266ab8e9265"}
{"_id":{"$oid":"6013dec9c167c93af7007094"},"mroles":[{"key":""}],"tenants":[],"username":"Dilruba Sağlam Ülker","email":"dilruba.saglam@experto.com.tr","active":true,"oid":"effb9aa3-907e-47a3-8eff-4ea45bf59237","isAdmin":false,"key":"DILRUBA_SAGLAM_ULKER","__v":{"$numberInt":"0"},"oldId":"5f649eed17dac266ab8e9263","vroles":["SATIŞ_PERSONEL","TOPLANTIRAPORLAMA"]}
{"_id":{"$oid":"6013e0b8c167c93af7007126"},"mroles":[{"key":""}],"tenants":[],"username":"Enes Özbey","email":"enes.ozbey@experto.com.tr","active":true,"oid":"df256ae7-42ee-450a-afbe-1fd83ba0698c","isAdmin":false,"key":"ENES_OZBEY","__v":{"$numberInt":"0"},"oldId":"5f64dcc817dac266ab8e92d9","vroles":["SATIŞ_PERSONEL"]}
{"_id":{"$oid":"6013e0efc167c93af700713a"},"mroles":[{"key":""}],"tenants":[],"username":"Eray Tanlası","email":"eray.tanlasi@experto.com.tr","active":true,"oid":"3b584b9a-1558-4f0e-8406-d90e55d170d9","isAdmin":false,"key":"ERAY_TANLASI","__v":{"$numberInt":"0"},"oldId":"5f64967517dac266ab8e923c","vroles":["SATIŞ_PERSONEL"]}
{"_id":{"$oid":"6013e12cc167c93af700714f"},"mroles":[{"key":""}],"tenants":[],"username":"Fatoş Genç","email":"fatos.genc@experto.com.tr","active":true,"oid":"a3b16830-196c-4c09-a375-aff78d1395d0","isAdmin":false,"key":"FATOS_GENC","__v":{"$numberInt":"0"},"oldId":"5f6495ec17dac266ab8e9238","vroles":["SATIŞ_PERSONEL"]}
{"_id":{"$oid":"6013e160c167c93af7007164"},"mroles":[{"key":""}],"tenants":[],"username":"Gizem Akdut","email":"gizem.akdut@experto.com.tr","active":true,"oid":"8905612e-3967-494e-81c0-c883d0b5234b","isAdmin":false,"key":"GIZEM_AKDUT","__v":{"$numberInt":"0"},"oldId":"5f64988817dac266ab8e9244","vroles":["SATIŞ_PERSONEL","TOPLANTIRAPORLAMA"]}
{"_id":{"$oid":"6013e197c167c93af7007176"},"mroles":[{"key":""}],"tenants":[],"username":"Hasan Birol","email":"hasan.birol@experto.com.tr","active":true,"oid":"8ef44284-85ee-47e9-a3c6-fb20fd7c2412","isAdmin":false,"key":"HASAN_BIROL","__v":{"$numberInt":"0"},"oldId":"5f6837fe26e64207cba5346d","vroles":["MUHASEBE_YÖNETIM","SATIŞ_YÖNETIM","SATIŞ_PERSONEL","TOPLANTIRAPORLAMA","URUN_YONETIM"]}
{"_id":{"$oid":"6013e1c2c167c93af7007186"},"mroles":[{"key":""}],"tenants":[],"username":"Hilal Yılmaz","email":"hilal.yilmaz@experto.com.tr","active":true,"oid":"3fa1c6da-9f42-44e8-9a0c-9bc09c904002","isAdmin":false,"key":"HILAL_YILMAZ","__v":{"$numberInt":"0"},"oldId":"5f6498fb17dac266ab8e9246","vroles":["SATIŞ_YÖNETIM","MUHASEBE_YÖNETIM"]}
{"_id":{"$oid":"6013e207c167c93af700719f"},"mroles":[{"key":""}],"tenants":[],"username":"Hülya Hacıbayramoğlu","email":"hulya.hacibayramoglu@experto.com.tr","active":true,"oid":"f06f40e0-906e-4a56-b524-870c54c4f58d","isAdmin":false,"key":"HULYA_HACIBAYRAMOGLU","__v":{"$numberInt":"0"},"oldId":"5f5a3823ffeae879e335d76b","vroles":["SATIŞ_YÖNETIM","SATIŞ_PERSONEL"]}
{"_id":{"$oid":"6013e238c167c93af70071b0"},"mroles":[{"key":""}],"tenants":[],"username":"Jülide Birol","email":"julide.birol@experto.com.tr","active":true,"oid":"092a66e6-2a24-4b54-aea2-d1658185da35","isAdmin":false,"key":"JULIDE_BIROL","__v":{"$numberInt":"0"},"oldId":"5f683a3e26e64207cba5346e","vroles":["YÖNETIM","SATIŞ_YÖNETIM","TOPLANTIRAPORLAMA"]}
{"_id":{"$oid":"6013e26cc167c93af70071c0"},"mroles":[{"key":""}],"tenants":[],"username":"Kübra İstemez","email":"kubra.istemez@experto.com.tr","active":true,"oid":"49ebc177-6553-420b-988b-327bf84003ae","isAdmin":false,"key":"KUBRA_ISTEMEZ","__v":{"$numberInt":"0"},"oldId":"5fd213ea2838d217a4ac3226","vroles":["SATIŞ_PERSONEL"]}
{"_id":{"$oid":"6013e29fc167c93af70071d4"},"mroles":[{"key":""}],"tenants":[],"username":"Merve Albayrak Birol","email":"merve.albayrak@experto.com.tr","active":true,"oid":"9bae6532-6331-4bab-bf08-14d15e0599d8","isAdmin":false,"key":"MERVE_ALBAYRAK_BIROL","__v":{"$numberInt":"0"},"oldId":"5f6837d826e64207cba5346c","vroles":["SATIŞ_PERSONEL"]}
{"_id":{"$oid":"6013e2dac167c93af70071e9"},"mroles":[{"key":""}],"tenants":[],"username":"Münire Eliboloğlu","email":"munire.elibologlu@experto.com.tr","active":true,"oid":"75f6e9c6-e167-4a42-a489-15d1442fff67","isAdmin":false,"key":"MUNIRE_ELIBOLOGLU","__v":{"$numberInt":"0"},"oldId":"5f5a0ef974138150e5ce94a0","vroles":["MUHASEBE_YÖNETIM","SATIŞ_YÖNETIM","URUN_YONETIM"]}
{"_id":{"$oid":"6013e315c167c93af70071fe"},"mroles":[{"key":""}],"tenants":[],"username":"Naime Yüceyurt","email":"naime.yuceyurt@experto.com.tr","active":true,"oid":"7f0d53ea-88f0-444c-ad77-914555c0b404","isAdmin":false,"key":"NAIME_YUCEYURT","__v":{"$numberInt":"0"},"oldId":"5fc4e032e0bb68e7f5267f86","vroles":["SATIŞ_PERSONEL"]}
{"_id":{"$oid":"6013e343c167c93af7007212"},"mroles":[{"key":""}],"tenants":[],"username":"Nihat Demirtaş","email":"nihat.demirtas@experto.com.tr","active":true,"oid":"cda6ec2e-b471-40b2-a81a-d73e1b7316ec","isAdmin":false,"key":"NIHAT_DEMIRTAS","__v":{"$numberInt":"0"},"oldId":"5f64afc417dac266ab8e929e","vroles":["SATIŞ_YÖNETIM","SATIŞ_PERSONEL"]}
{"_id":{"$oid":"6013e374c167c93af7007222"},"mroles":[{"key":""}],"tenants":[],"username":"Özgül Yıldız","email":"ozgul.yildiz@experto.com.tr","active":true,"oid":"fcbb7ef0-737f-4f04-848f-0edaa507f327","isAdmin":false,"key":"OZGUL_YILDIZ","__v":{"$numberInt":"0"},"oldId":"5f64beac17dac266ab8e92be","vroles":["SATIŞ_PERSONEL"]}
{"_id":{"$oid":"6013e3a4c167c93af7007235"},"mroles":[{"key":""}],"tenants":[],"username":"Özgür Palantöken","email":"ozgur.palantoken@experto.com.tr","active":true,"oid":"ebc22895-6058-406f-b934-a4ab8fa7f340","isAdmin":false,"key":"OZGUR_PALANTOKEN","__v":{"$numberInt":"0"},"oldId":"5f649e9317dac266ab8e9262"}
{"_id":{"$oid":"6013e3d1c167c93af7007243"},"mroles":[{"key":""}],"tenants":[],"username":"Perihan Dündar","email":"perihan.dundar@experto.com.tr","active":true,"oid":"0c2ee695-3a6b-4922-90d5-37a167438c53","isAdmin":false,"key":"PERIHAN_DUNDAR","__v":{"$numberInt":"0"},"vroles":["SATIŞ_PERSONEL"]}
{"_id":{"$oid":"6013e3fdc167c93af7007256"},"mroles":[{"key":""}],"tenants":[],"username":"Rabia Tazegül","email":"rabia.tazegul@experto.com.tr","active":true,"oid":"c43bacd9-6a76-460a-a0c9-390c90f3fd35","isAdmin":false,"key":"RABIA_TAZEGUL","__v":{"$numberInt":"0"},"vroles":["SATIŞ_PERSONEL"]}
{"_id":{"$oid":"6013e426c167c93af7007266"},"mroles":[{"key":""}],"tenants":[],"username":"Selçuk Erzaim","email":"selcuk.erzaim@experto.com.tr","active":true,"oid":"7bbb30bd-93de-4a3a-ac8c-752fe74dc3e8","isAdmin":false,"key":"SELCUK_ERZAIM","__v":{"$numberInt":"0"},"oldId":"5fc4db76e0bb68e7f5267bd5","vroles":["SATIŞ_PERSONEL"]}
{"_id":{"$oid":"6013e44cc167c93af7007272"},"mroles":[{"key":""}],"tenants":[],"username":"Semih Atik","email":"semih.atik@experto.com.tr","active":true,"oid":"bad6b6c6-4bdc-465d-9fea-59c29d47f701","isAdmin":false,"key":"SEMIH_ATIK","__v":{"$numberInt":"0"},"oldId":"5f68510426e64207cba5347d","vroles":["SATIŞ_PERSONEL"]}
{"_id":{"$oid":"6013e48fc167c93af700728b"},"mroles":[{"key":""}],"tenants":[],"username":"Sertaç Hikmet Atalay","email":"sertac.atalay@experto.com.tr","active":true,"oid":"c28b332a-8581-4c6f-839d-a66919d4e8d0","isAdmin":false,"key":"SERTAC_H_ATALAY","__v":{"$numberInt":"0"},"oldId":"5f64dbe117dac266ab8e92d8","vroles":["SATIŞ_PERSONEL"]}
{"_id":{"$oid":"6013e4b7c167c93af7007299"},"mroles":[{"key":""}],"tenants":[],"username":"Taha Ülker","email":"taha.ulker@experto.com.tr","active":true,"oid":"d1b972e8-48ef-40bf-927c-18007ecf85d2","isAdmin":false,"key":"TAHA_ULKER","__v":{"$numberInt":"0"},"oldId":"5f649f8917dac266ab8e9267","vroles":["SATIŞ_PERSONEL"]}
{"_id":{"$oid":"6013e4e4c167c93af70072ad"},"mroles":[{"key":""}],"tenants":[],"username":"Tayibe Sönmez","email":"tayibe.sonmez@experto.com.tr","active":true,"oid":"d3065b28-9038-45f9-9562-21a43aa786e1","isAdmin":false,"key":"TAYIBE_SONMEZ","__v":{"$numberInt":"0"},"oldId":"5f64967317dac266ab8e923a","vroles":["SATIŞ_PERSONEL"]}
{"_id":{"$oid":"6013e511c167c93af70072be"},"mroles":[{"key":""}],"tenants":[],"username":"Tuğçe Çorbacı","email":"tugce.corbaci@experto.com.tr","active":true,"oid":"ed1178d7-34f2-4f23-a2c2-ed549c7af18d","isAdmin":false,"key":"TUGCE_CORBACI","__v":{"$numberInt":"0"},"vroles":["SATIŞ_PERSONEL"]}
{"_id":{"$oid":"6013e53bc167c93af70072ca"},"mroles":[{"key":""}],"tenants":[],"username":"Yasin Karapınar","email":"yasin.karapinar@experto.com.tr","active":true,"oid":"aba30557-9fcf-442f-8921-4e857c17d8f3","isAdmin":false,"key":"YASIN_KARAPINAR","__v":{"$numberInt":"0"},"vroles":["SATIŞ_PERSONEL"]}
{"_id":{"$oid":"6013e562c167c93af70072db"},"mroles":[{"key":""}],"tenants":[],"username":"Yiğit İnce","email":"yigit.ince@experto.com.tr","active":true,"oid":"a638ed86-90e6-49aa-931b-2c08cfe60042","isAdmin":false,"key":"YIGIT_INCE","__v":{"$numberInt":"0"},"oldId":"5f64d9ea17dac266ab8e92d7","vroles":["SATIŞ_YÖNETIM","SATIŞ_PERSONEL"]}
{"_id":{"$oid":"6020cd400c6767001bfd0a6d"},"vroles":["SATIŞ_PERSONEL"],"key":"EBRU_ZORER","tenants":[],"username":"ebru.zorer@experto.com.tr","email":"ebru.zorer@experto.com.tr","active":true,"oid":"f5f472fb-3202-4ee1-885f-96124014e620","isAdmin":false,"__v":{"$numberInt":"0"}}
{"_id":{"$oid":"603a22f1d504c4001b07e8ed"},"vroles":["SATIŞ_PERSONEL"],"tenants":[],"username":"merve.celik@experto.com.tr","email":"merve.celik@experto.com.tr","active":true,"isAdmin":false,"key":"MERVE_CELIK","oid":"b44cdfd1-b318-4f6e-b034-2b0b8519f87f","__v":{"$numberInt":"0"}}
{"_id":{"$oid":"604a2b5241a3f9001bc6a854"},"vroles":["SATIŞ_PERSONEL"],"tenants":[],"username":"Pınar Senli","email":"pinar.senli@experto.com.tr","active":true,"isAdmin":false,"key":"PINAR_SENLI","oid":"82fae308-0952-43ef-9f6f-6afa5af52417","__v":{"$numberInt":"0"}}
{"_id":{"$oid":"60757d541d97ff001bb8d60f"},"vroles":["SATIŞ_PERSONEL"],"tenants":[],"username":"Gizem Yeşiltaş","email":"gizem.yesiltas@experto.com.tr","active":true,"isAdmin":false,"key":"GIZEM_YESILTAS","oid":"c9cddaa2-1d2f-4ef5-9eb6-70afd8c8ca5c","__v":{"$numberInt":"0"}}
{"_id":{"$oid":"608664d27ff176001ba20022"},"vroles":[],"tenants":[],"username":"ozguc.aydin@experto.com.tr","email":"ozguc.aydin@experto.com.tr","active":false,"isAdmin":false,"key":"OZGUC_AYDIN","oid":"3423e252-2040-4f8a-ae5d-8f7dbe8b3512    ","__v":{"$numberInt":"0"}}
{"_id":{"$oid":"60993b4fc167c93af72e080e"},"mroles":[{"key":""}],"tenants":[],"username":"Eyüp Baldis","email":"eyup.baldis@experto.com.tr","active":true,"oid":"a69f9e05-c57b-4c5b-a1c8-15a767777a50","isAdmin":false,"key":"EYUP_BALDIS","__v":{"$numberInt":"0"},"oldId":"","vroles":["SATIŞ_PERSONEL"]}
{"_id":{"$oid":"60ba2ae957f0b9001ba19e4b"},"vroles":["SATIŞ_PERSONEL"],"tenants":[],"username":"Mustafa Berbercioğlu","email":"mustafa.berbercioglu@experto.com.tr","active":true,"isAdmin":false,"key":"MUSTAFA_BERBERCIOGLU","oid":"acdc9873-c629-4e6e-bbeb-40ab96c13ff9","__v":{"$numberInt":"0"}}
{"_id":{"$oid":"60dee8eb006b7a001b2c4d48"},"vroles":["SATIŞ_PERSONEL"],"tenants":[],"username":"Çağrı Akman","email":"cagri.akman@experto.com.tr","key":"CAGRI_AKMAN","isAdmin":false,"active":true,"oid":"a1b2d9cb-bcd5-45cd-8b59-022c078fb54b","__v":{"$numberInt":"0"}}
{"_id":{"$oid":"611cd21126edb2001b07ee00"},"vroles":["SATIS_PERSONEL"],"tenants":[],"username":"Ender Gencer","email":"ender.gencer@experto.com.tr","active":true,"key":"ENDER_GENCER","isAdmin":false,"oid":"3ffeb177-7fa3-4445-a0d5-6f4dbea5b259","__v":{"$numberInt":"0"}}
{"_id":{"$oid":"615d2e47d4cec1001b62eda4"},"vroles":[],"tenants":[],"username":"busranur.yigit@experto.com.tr","email":"busranur.yigit@experto.com.tr","active":false,"oid":"efffc16d-8eba-4824-a5be-727e4cfd08ee","__v":{"$numberInt":"0"}}
